{
  "images" : [
    {
      "idiom" : "iphone",
      "scale" : "1x",
      "filename" : "Default.png"
    },
    {
      "idiom" : "iphone",
      "scale" : "2x",
      "filename" : "Default@2x.png"
    },
    {
      "idiom" : "iphone",
      "filename" : "Default@3x.png",
      "subtype" : "retina4",
      "scale" : "2x"
    },
    {
      "idiom" : "iphone",
      "scale" : "3x",
      "filename" : "Default@4x.png"
    },
    {
      "idiom" : "ipad",
      "scale" : "1x"
    },
    {
      "idiom" : "ipad",
      "scale" : "2x"
    }
  ],
  "info" : {
    "version" : 1,
    "author" : "xcode"
  }
}